{"href":"http:\/\/api.reliefweb.int\/v1\/countries","time":15,"links":{"self":{"href":"http:\/\/api.reliefweb.int\/v1\/countries?offset=0&limit=10&preset=minimal"},"next":{"href":"http:\/\/api.reliefweb.int\/v1\/countries?offset=10&limit=10&preset=minimal"}},"totalCount":249,"count":10,"data":[{"id":"191","score":1,"href":"http:\/\/api.reliefweb.int\/v1\/countries\/191","fields":{"name":"Portugal"}},{"id":"190","score":1,"href":"http:\/\/api.reliefweb.int\/v1\/countries\/190","fields":{"name":"Poland"}},{"id":"189","score":1,"href":"http:\/\/api.reliefweb.int\/v1\/countries\/189","fields":{"name":"Pitcairn Island"}},{"id":"187","score":1,"href":"http:\/\/api.reliefweb.int\/v1\/countries\/187","fields":{"name":"Peru"}},{"id":"186","score":1,"href":"http:\/\/api.reliefweb.int\/v1\/countries\/186","fields":{"name":"Paraguay"}},{"id":"185","score":1,"href":"http:\/\/api.reliefweb.int\/v1\/countries\/185","fields":{"name":"Papua New Guinea"}},{"id":"184","score":1,"href":"http:\/\/api.reliefweb.int\/v1\/countries\/184","fields":{"name":"Panama"}},{"id":"183","score":1,"href":"http:\/\/api.reliefweb.int\/v1\/countries\/183","fields":{"name":"Palau"}},{"id":"181","score":1,"href":"http:\/\/api.reliefweb.int\/v1\/countries\/181","fields":{"name":"Oman"}},{"id":"179","score":1,"href":"http:\/\/api.reliefweb.int\/v1\/countries\/179","fields":{"name":"Norway"}}]}